{
  "name": "photo-upload",
  "description": "Upload photos",
  "dependencies": {
  	"component/s3": "*",
  	"component/drop-anywhere": "*",
  	"visionmedia/superagent": "*",
    "component/domify": "*",
    "component/file-picker": "*"
  },
  "development": {},
  "main": "index.js",
  "scripts": [
    "index.js"
  ],
  "styles": [
    "photo-upload.css"
  ],
  "templates": [
    "photo-item.html"
  ]
}